3_baseline screening
…
bl_screen$bl_outlier <- as.logical(bl_screen$bl_outlier)

bl_screen %>%
  group_by(pp_no, emotion, muscle) %>%
  summarise(trialcount = n(), trialbad = sum(bl_outlier))

## `summarise()` regrouping output by 'pp_no', 'emotion' (override with `.groups` argument)

## # A tibble: 398 x 5
## # Groups:   pp_no, emotion [199]
##    pp_no emotion muscle trialcount trialbad
##    <chr>   <dbl> <chr>       <int>    <int>
##  1 pp401     626 brow            8        0
##  2 pp401     626 cheek           8        0
##  3 pp401     727 brow            8        1
##  4 pp401     727 cheek           8        1
##  5 pp401     828 brow            8        0
##  6 pp401     828 cheek           8        1
##  7 pp401     929 brow            8        1
##  8 pp401     929 cheek           8        1
##  9 pp402     626 brow            8        0
## 10 pp402     626 cheek           8        1
## # … with 388 more rows
…
